data,hora,temp_inst,temp_max,temp_min,umid_inst,umid_max,umid_min,pto_orvalho_inst,pto_orvalho_max,pto_orvalho_min,pressao,pressao_max,pressao_min,vento_direcao,vento_vel,vento_rajada,radiacao,precipitacao
08/08/2019,00,17.3,20.0,17.2,87,87,74,15.2,15.4,14.5,967.8,967.8,967.5,1.6,109,3.0,-3.54,0.0
08/08/2019,01,17.2,17.7,17.0,89,90,87,15.4,15.6,15.1,967.9,968.0,967.8,1.2,67,2.4,-3.54,0.0
08/08/2019,02,16.5,17.2,16.3,91,92,89,15.1,15.4,15.0,968.0,968.0,967.8,1.8,80,2.4,-3.54,0.0
08/08/2019,03,15.4,16.5,15.4,94,94,91,14.5,15.0,14.5,967.9,968.1,967.9,2.4,82,2.9,-3.54,0.0
08/08/2019,04,15.0,15.5,14.9,96,96,94,14.3,14.6,14.2,968.1,968.1,967.9,1.8,89,2.9,-3.54,0.0
08/08/2019,05,14.9,15.0,14.6,96,96,96,14.3,14.3,14.0,967.9,968.1,967.9,1.7,55,2.8,-3.54,0.0
08/08/2019,06,14.3,15.1,14.3,96,96,93,13.6,14.3,13.5,967.5,967.9,967.5,2.4,82,3.3,-3.54,0.0
08/08/2019,07,14.4,14.4,14.0,95,97,95,13.6,13.7,13.4,967.2,967.5,967.2,2.2,68,3.4,-3.53,0.0
08/08/2019,08,14.7,14.9,14.4,93,95,92,13.6,13.9,13.5,967.1,967.3,967.0,3.0,74,4.4,-3.52,0.0
08/08/2019,09,15.5,15.5,14.6,89,93,89,13.8,13.8,13.5,967.1,967.1,967.0,3.1,72,4.6,-3.45,0.0
08/08/2019,10,15.3,15.5,15.3,90,90,89,13.8,13.8,13.7,967.5,967.5,967.1,2.7,73,4.6,-2.97,0.0
08/08/2019,11,15.4,15.4,14.9,91,92,90,14.0,14.0,13.7,967.8,967.9,967.5,3.0,80,4.3,32.10,0.0
08/08/2019,12,16.5,16.5,15.4,89,91,89,14.7,14.7,13.9,967.7,967.9,967.7,3.3,77,5.0,183.6,0.0
08/08/2019,13,19.0,19.0,16.5,82,89,82,15.9,15.9,14.7,967.6,967.7,967.5,2.8,63,5.5,679.1,0.0
08/08/2019,14,23.4,23.8,19.0,67,82,66,16.8,17.6,15.8,967.6,967.7,967.6,2.9,25,5.9,1383.,0.0
08/08/2019,15,24.7,25.8,23.1,62,69,59,16.9,17.6,16.2,966.7,967.6,966.7,4.6,16,9.9,1937.,0.0
08/08/2019,16,24.3,25.0,24.2,62,64,60,16.6,17.6,16.3,966.4,966.7,966.4,3.9,348,8.7,1030.,0.0
